
== Copyright ==

This file has no copyright; it is fully in a public domain.


== Purpose of each file ==

attrzone.asm       Main source-codes for the game
attrzone.nes       iNES ROM image for the game
attrzone.nes.ini   Manifest file for the game
attrzone.nsf       File to play music
attrzone.orc       Csound orchestra for compiling music
aznsf.asm          Source file for NSF
huffer.c           Program to analyze and compress level data
leveldec.inc       Level decoder (output from huffer.c)
levelptr.inc       Level pointers (output from huffer.c)
lvlcopy.c          Program to extract RAM images
lvldata.0          Compressed level data (output from huffer.c)
mkperiod.bas       BASIC program to create tone.bin
pc.chr             PC character set
read.me            This file
rle.dat            Input for huffer.c to specify RLE setting
song1.bin          Raw compiled music
song1.mml          Source file for music
song2.bin          Raw compiled music
song2.mml          Source file for music
song3.bin          Raw compiled music
song3.mml          Source file for music
song4.bin          Raw compiled music
song4.mml          Source file for music
tone.bin           Period data for nodes
ziplist            List of files


== Play game function ==

You can use a keyboard, or first player game control.

With a keyboard, you push H J K L or arrow keys to move a player, and you
push Z to switch right-side-up/up-side-down players, X explodes all bombs
on the screen, RETURN to restart this level, F1 for title screen, F4 to
load the editor, and push square brackets for previous/next level.

With a first player game control, push direction up, down, left, right,
and push A to switch players, B to explode, SELECT for title screen, and
START to restart this level.


== Editor function ==

UP DOWN LEFT RIGHT    Move cursor
H J K L               Move cursor
SHIFT+direction       Move cursor once per frame
F4                    Clear screen
SHIFT+F4              Clear screen and toggle horizontal parity
CTR+F4                Clear screen and toggle vertical parity
F5                    Write level to tape
SHIFT+F5              Sort sprites
SPACE                 Plot or unplot a wall
F                     Rectangular fill
Z X C V               Set current color
SHIFT+Z               Set area to blue
SHIFT+X               Set area to green
SHIFT+C               Set area to yellow
SHIFT+V               Set area to red
DEL                   Delete a sprite and tile
D                     Delete a sprite
SHIFT+D               Delete all sprites
STOP                  Return to title screen

Pieces: (SHIFT = colored, CTR = sprite)

1   Empty         Player
2   Wall          Other Player
3   Key           Pusher N
4   Door          Pusher S
5   Box           Pusher E
6   Slider E/W    Pusher W
7   Slider N/S    Ghost
8   One Step      Chaser
Q   Ball          Runner N
W   Gem           Runner S
E   Paintbrush    Runner E
R   Gate          Runner W
T   Bomb          Rock
Y   Ghost Block   Bubble
U   Puller        Timer H
I   Water         Timer V
